…
    ## Calculating cluster 6

    ## Calculating cluster 7

    ## Calculating cluster 8

    ## Calculating cluster 9

    all_degs %>%
      group_by(cluster) %>%
      top_n(5,avg_log2FC) %>%
      arrange(desc(avg_log2FC))

    ## # A tibble: 50 × 7
    ## # Groups:   cluster [10]
    ##        p_val avg_log2FC pct.1 pct.2 p_val_adj cluster gene    
    ##        <dbl>      <dbl> <dbl> <dbl>     <dbl> <fct>   <chr>   
    ##  1 0               2.12 0.995 0.18  0         2       S100A8  
    ##  2 0               2.04 0.993 0.265 0         2       S100A9  
    ##  3 0               2.00 0.998 0.271 0         2       LYZ     
    ##  4 3.27e-130       1.95 1     0.064 1.10e-125 9       JCHAIN  
    ##  5 0               1.81 0.968 0.038 0         6       CD79A   
    ##  6 0               1.78 0.93  0.036 0         2       VCAN    
    ##  7 0               1.75 0.986 0.259 0         4       GNLY    
    ##  8 1.67e-114       1.74 1     0.127 5.63e-110 8       HLA-DQA1
    ##  9 9.49e-182       1.73 0.947 0.038 3.20e-177 9       PLD4    
    ## 10 0               1.73 0.953 0.078 0         2       FCN1    
    ## # ℹ 40 more rows
…
